OneZoneFreefallTestInitialDensity = 0.150000
OneZoneFreefallTestMinimumEnergy = 4.000000
OneZoneFreefallTestMaximumEnergy = 4.000000
OneZoneFreefallTestMinimumMetallicity = 0.000001
OneZoneFreefallTestMaximumMetallicity = 0.000001
OneZoneFreefallTimestepFraction = 0.001000
OneZoneFreefallUseEffectiveGamma = 1
TestProblemHydrogenFractionByMass = 0.760000
TestProblemDeuteriumToHydrogenRatio = 0.000068
TestProblemInitialHIFraction  = 0.999898
TestProblemInitialHIIFraction  = 0.000100
TestProblemInitialHeIFraction  = 0.083330
TestProblemInitialHeIIFraction  = 0.000000
TestProblemInitialHeIIIIFraction  = 0.000000
TestProblemInitialHMFraction  = 0.000000
TestProblemInitialH2IFraction  = 0.000001
TestProblemInitialH2IIFraction  = 0.000000
TestProblemInitialDIFraction  = 0.000030
TestProblemInitialDIIFraction  = 0.000000
TestProblemInitialHDIFraction  = 0.000000
TestProblemInitialdeFraction  = 0.000000TestProblemInitialOIFraction  = 0.000000TestProblemInitialOIIFraction  = 0.000000TestProblemInitialCIFraction  = 0.000000TestProblemInitialCIIFraction  = 0.000000TestProblemInitialOHIFraction  = 0.000000TestProblemInitialOHIIFraction  = 0.000000TestProblemInitialO2IFraction  = 0.000000TestProblemInitialO2IIFraction  = 0.000000TestProblemInitialH2OIFraction  = 0.000000TestProblemInitialH2OIIFraction  = 0.000000TestProblemInitialH3OIIFraction  = 0.000000TestProblemInitialCHIFraction  = 0.000000TestProblemInitialCH2IFraction  = 0.000000TestProblemInitialCH3IFraction  = 0.000000TestProblemInitialCH4IFraction  = 0.000000TestProblemInitialCOIFraction  = 0.000000TestProblemInitialCOIIFraction  = 0.000000TestProblemInitialCO2IFraction  = 0.000000TestProblemUseMetallicityField  = 1
InitialCycleNumber  = 0
InitialTime         = 0
InitialCPUTime      = 0

CheckpointRestart   = 0
StopTime            = 300
StopCycle           = 25000
StopSteps           = 10000
StopCPUTime         = 2.592e+06
ResubmitOn          = 0
ResubmitCommand     = (null)

MaximumTopGridTimeStep = 1e+20
TimeLastRestartDump = 0
dtRestartDump       = -99999
TimeLastDataDump    = 0
dtDataDump          = 0
TimeLastHistoryDump = 0
dtHistoryDump       = 0

TracerParticleOn           = 0
TracerParticleOutputVelocity           = 0
TimeLastTracerParticleDump = 0
dtTracerParticleDump       = 0
TimeLastInterpolatedDataDump    = -99999
dtInterpolatedDataDump          = 0
NewMovieLeftEdge     = 0 0 
NewMovieRightEdge    = 1 1 
MovieSkipTimestep    = -99999
Movie3DVolumes       = 0
MovieVertexCentered  = 0
NewMovieParticleOn   = 0
MovieDataField       = -99999 -99999 -99999 -99999 -99999 -99999 
NewMovieDumpNumber   = 0
NewMovieName         = MoviePack
MovieTimestepCounter = 0

CycleLastRestartDump = 0
CycleSkipRestartDump = 0
CycleLastDataDump    = -500
CycleSkipDataDump    = 500
CycleLastHistoryDump = 0
CycleSkipHistoryDump = 0

PythonTopGridSkip       = 0
PythonSubcycleSkip      = 1
PythonReloadScript      = 0
TimingCycleSkip             = 1
CycleSkipGlobalDataDump = 0

SubcycleNumber          = 0
SubcycleSkipDataDump    = 0
SubcycleLastDataDump    = 0
OutputFirstTimeAtLevel = 0
StopFirstTimeAtLevel    = 0
NumberOfOutputsBeforeExit = 0

OutputOnDensity = 0
StartDensityOutputs = 999
CurrentDensityOutput = 999
IncrementDensityOutput = 999
StopFirstTimeAtDensity = 0
StopFirstTimeAtMetalEnrichedDensity = 0
EnrichedMetalFraction = 1e-08

FileDirectedOutput = 1
HierarchyFileInputFormat = 1
HierarchyFileOutputFormat = 1
RestartDumpNumber   = 0
DataDumpNumber      = 0
HistoryDumpNumber   = 0
TracerParticleDumpNumber = 0
RestartDumpName     = restart
DataDumpName        = DD
HistoryDumpName     = history
TracerParticleDumpName = TracerOutput
RedshiftDumpName    = RedshiftOutput

RestartDumpDir        = RS
DataDumpDir           = DD
HistoryDumpDir        = HD
TracerParticleDumpDir = TD
RedshiftDumpDir       = RD

GlobalDir           = .
NumberOfGhostZones    = 3
LoadBalancing          = 1
ResetLoadBalancing     = 0
LoadBalancingCycleSkip = 10
LoadBalancingMinLevel  = 0
LoadBalancingMaxLevel  = 50
ConductionDynamicRebuildHierarchy = 0
ConductionDynamicRebuildMinLevel  = 0
StaticHierarchy     = 1
TopGridRank         = 2
TopGridDimensions   = 3 3 

TopGridGravityBoundary = 0
ImplicitProblem = 0
RadiativeTransferFLD   = 0
ParticleBoundaryType   = 3
NumberOfParticles      = 0 (do not modify)
CourantSafetyNumber    = 0.600000
PPMFlatteningParameter = 0
PPMDiffusionParameter  = 0
PPMSteepeningParameter = 0

ProblemType                    = 63
HydroMethod                    = 0
huge_number                    = 1.000000e+20
tiny_number                    = 1.000000e-20
Gamma                          = 1.66666666667
PressureFree                   = 1
RefineBy                       = 2
MaximumRefinementLevel         = 0
MaximumGravityRefinementLevel  = 2
MaximumParticleRefinementLevel = -1
CellFlaggingMethod             = -99999 -99999 -99999 -99999 -99999 -99999 -99999 -99999 -99999 
FluxCorrection                 = 0
UseCoolingTimestep             = 0
CoolingTimestepSafetyFactor    = 0.1
InterpolationMethod            = 1
ConservativeInterpolation      = 1
MinimumEfficiency              = 0.2
SubgridSizeAutoAdjust          = 1
OptimalSubgridsPerProcessor    = 16
MinimumSubgridEdge             = 6
MaximumSubgridSize             = 32768
CriticalGridRatio              = 3
NumberOfBufferZones            = 1

FastSiblingLocatorEntireDomain      = 1
MustRefineRegionMinRefinementLevel  = -1
MetallicityRefinementMinLevel       = -1
MetallicityRefinementMinMetallicity = 1e-05
MetallicityRefinementMinDensity     = -99999
DomainLeftEdge         = 0 0 
DomainRightEdge        = 1 1 
GridVelocity           = 0 0 
RefineRegionAutoAdjust = 0
RefineRegionLeftEdge   = 0 0 
RefineRegionRightEdge  = 1 1 
MustRefineRegionLeftEdge   = 0 0 
MustRefineRegionRightEdge  = 1 1 
RefineRegionTimeType   = -1
MustRefineParticlesLeftEdge   = 0 0 
MustRefineParticlesRightEdge  = 0 0 





DataLabel[0]              = Density
#DataCGSConversionFactor[0] = 1.67e-24
DataLabel[1]              = TotalEnergy
DataLabel[2]              = GasEnergy
DataLabel[3]              = x-velocity
#DataCGSConversionFactor[3] = 97781.79167855
DataLabel[4]              = y-velocity
#DataCGSConversionFactor[4] = 97781.79167855
DataLabel[5]              = Electron_Density
#DataCGSConversionFactor[5] = 1.67e-24
DataLabel[6]              = HI_Density
#DataCGSConversionFactor[6] = 1.67e-24
DataLabel[7]              = HII_Density
#DataCGSConversionFactor[7] = 1.67e-24
DataLabel[8]              = HeI_Density
#DataCGSConversionFactor[8] = 1.67e-24
DataLabel[9]              = HeII_Density
#DataCGSConversionFactor[9] = 1.67e-24
DataLabel[10]              = HeIII_Density
#DataCGSConversionFactor[10] = 1.67e-24
DataLabel[11]              = HM_Density
#DataCGSConversionFactor[11] = 1.67e-24
DataLabel[12]              = H2I_Density
#DataCGSConversionFactor[12] = 1.67e-24
DataLabel[13]              = H2II_Density
#DataCGSConversionFactor[13] = 1.67e-24
DataLabel[14]              = DI_Density
#DataCGSConversionFactor[14] = 1.67e-24
DataLabel[15]              = DII_Density
#DataCGSConversionFactor[15] = 1.67e-24
DataLabel[16]              = HDI_Density
#DataCGSConversionFactor[16] = 1.67e-24
DataLabel[17]              = Metal_Density
#DataCGSConversionFactor[17] = 1.67e-24
DataLabel[18]              = OI_Density
#DataCGSConversionFactor[18] = 1.67e-24
DataLabel[19]              = OII_Density
#DataCGSConversionFactor[19] = 1.67e-24
DataLabel[20]              = CI_Density
#DataCGSConversionFactor[20] = 1.67e-24
DataLabel[21]              = CII_Density
#DataCGSConversionFactor[21] = 1.67e-24
DataLabel[22]              = OHI_Density
#DataCGSConversionFactor[22] = 1.67e-24
DataLabel[23]              = OHII_Density
#DataCGSConversionFactor[23] = 1.67e-24
DataLabel[24]              = O2I_Density
#DataCGSConversionFactor[24] = 1.67e-24
DataLabel[25]              = O2II_Density
#DataCGSConversionFactor[25] = 1.67e-24
DataLabel[26]              = H2OI_Density
#DataCGSConversionFactor[26] = 1.67e-24
DataLabel[27]              = H2OII_Density
#DataCGSConversionFactor[27] = 1.67e-24
DataLabel[28]              = H3OII_Density
#DataCGSConversionFactor[28] = 1.67e-24
DataLabel[29]              = CHI_Density
#DataCGSConversionFactor[29] = 1.67e-24
DataLabel[30]              = CH2I_Density
#DataCGSConversionFactor[30] = 1.67e-24
DataLabel[31]              = CH3I_Density
#DataCGSConversionFactor[31] = 1.67e-24
DataLabel[32]              = CH4I_Density
#DataCGSConversionFactor[32] = 1.67e-24
DataLabel[33]              = COI_Density
#DataCGSConversionFactor[33] = 1.67e-24
DataLabel[34]              = COII_Density
#DataCGSConversionFactor[34] = 1.67e-24
DataLabel[35]              = CO2I_Density
#DataCGSConversionFactor[35] = 1.67e-24
#TimeUnits                 = 31557000000000
#TemperatureUnits          = 115.83238210961

UniformGravity             = 0
UniformGravityDirection    = 0
UniformGravityConstant     = 1
PointSourceGravity           = 0
PointSourceGravityPosition   = 0 0 
PointSourceGravityConstant   = 1
PointSourceGravityCoreRadius = 0

DiskGravity                        = 0
DiskGravityPosition                = 0 0 
DiskGravityAngularMomentum         = 0 0 
DiskGravityStellarDiskMass         = 1e+11
DiskGravityStellarDiskScaleHeightR = 0.004
DiskGravityStellarDiskScaleHeightz = 0.00025
DiskGravityStellarBulgeMass        = 1e+10
DiskGravityStellarBulgeR           = 0.0004
DiskGravityDarkMatterR             = 0.023
DiskGravityDarkMatterDensity       = 3.81323e-25
ExternalGravity           = 0
ExternalGravityConstant     = 0.000000
ExternalGravityRadius     = 0.000000
ExternalGravityDensity     = 0.000000
ExternalGravityPosition   = 0 0 
ExternalGravityOrientation   = 0 0 
SelfGravity                    = 0
SelfGravityGasOff              = 0
AccretionKernal                = 0
GravitationalConstant          = 1.394833e-03
ComputePotential               = 0
PotentialIterations            = 4
WritePotential                 = 0
ParticleSubgridDepositMode     = 1
InlineHaloFinder               = 0
HaloFinderSubfind              = 0
HaloFinderCycleSkip            = 3
HaloFinderRunAfterOutput       = 1
HaloFinderOutputParticleList   = 0
HaloFinderMinimumSize          = 50
HaloFinderLinkingLength        = 0.200000
HaloFinderTimestep             = -99999.000000
HaloFinderLastTime             = 0.000000

GalaxySimulationRPSWind            = 0
GalaxySimulationRPSWindShockSpeed  = 0
GalaxySimulationRPSWindDelay       = 0
GalaxySimulationRPSWindDensity     = 1
GalaxySimulationRPSWindTotalEnergy = 1
GalaxySimulationRPSWindPressure    = 1
GalaxySimulationRPSWindVelocity    = 0 0 
GalaxySimulationPreWindDensity     = 1
GalaxySimulationPreWindTotalEnergy = 1
GalaxySimulationPreWindVelocity    = 0 0 
DualEnergyFormalism         = 1
DualEnergyFormalismEta1     = 1.000000e-03
DualEnergyFormalismEta2     = 1.000000e-01
ParticleCourantSafetyNumber = 0.500000

RootGridCourantSafetyNumber = 1.000000

RandomForcing                  = 0
RandomForcingEdot              = -1
DrivenFlowProfile              = 0
RadiativeCooling               = 1
RadiativeCoolingModel          = 1
GadgetEquilibriumCooling       = 0
MultiSpecies                   = 3
withWater                      = 1
CIECooling                     = 1
H2OpticalDepthApproximation    = 1
ThreeBodyRate                  = 0
H2FormationOnDust              = 1
CloudyCoolingGridFile          = solar_2008_3D_metals.h5
IncludeCloudyHeating           = 0
CMBTemperatureFloor            = 1
CloudyElectronFractionFactor   = 0.009154
MetalCooling                   = 3
MetalCoolingTable              = metal_cool.dat
RadiativeTransfer              = 0
RadiationXRaySecondaryIon      = 0
RadiationXRayComptonHeating    = 0
CRModel                        = 0
CRDiffusion                    = 0
CRkappa                        = 0.000000
CRCourantSafetyNumber          = 0.500000
CRFeedback                     = 0.000000
CRdensFloor                    = 0.000000
CRmaxSoundSpeed                = 0.000000
CRgamma                        = 1.333333
CosmologySimulationUniformCR   = 0.000000
ShockMethod                    = 0
ShockTemperatureFloor          = 1.000000
StorePreShockFields            = 0
FindShocksOnlyOnOutput         = 0
RadiationFieldType             = 0
TabulatedLWBackground          = 0
AdjustUVBackground             = 1
AdjustUVBackgroundHighRedshift = 0
SetUVBAmplitude                = 1
SetHeIIHeatingScale            = 1.8
RadiationFieldLevelRecompute   = 0
RadiationFieldRedshift         = -99999.000000
RadiationShield                = 0
RadiationSpectrumNormalization = 1e-21
RadiationSpectrumSlope         = 1.5
CoolDataf0to3                  = 0.100000
RadiationRedshiftOn            = 7.000000
RadiationRedshiftOff           = 0.000000
RadiationRedshiftFullOn        = 6.000000
RadiationRedshiftDropOff       = 0.000000
HydrogenFractionByMass         = 0.760000
DeuteriumToHydrogenRatio       = 0.000068
SolarMetalFractionByMass       = 0.020410
NumberOfTemperatureBins        = 600
CoolDataIh2co                  = 1
CoolDataIpiht                  = 1
TemperatureStart               = 1.000000
TemperatureEnd                 = 100000000.000000
CoolDataCompXray               = 0.000000
CoolDataTempXray               = 0.000000
NumberOfDustTemperatureBins    = 250
DustTemperatureStart           = 1.000000
DustTemperatureEnd             = 1500.000000
PhotoelectricHeating           = 0
PhotoelectricHeatingRate       = 8.5e-26
VelAnyl                        = 0
BAnyl                          = 0
WriteExternalAccel             = 0
OutputCoolingTime              = 1
OutputTemperature              = 1
OutputDustTemperature          = 1
OutputSmoothedDarkMatter       = 0
SmoothedDarkMatterNeighbors    = 32
OutputGriddedStarParticle      = 0
ZEUSLinearArtificialViscosity    = 0
ZEUSQuadraticArtificialViscosity = 2
UseMinimumPressureSupport        = 0
MinimumPressureSupportParameter  = 100.000000
RefineByJeansLengthSafetyFactor  = 4.000000
JeansRefinementColdTemperature  = -1.000000
RefineByResistiveLengthSafetyFactor  = 2.000000
MustRefineParticlesRefineToLevel = 0
MustRefineParticlesCreateParticles = 0
MustRefineParticlesRefineToLevelAutoAdjust = 0
MustRefineParticlesMinimumMass = 0.000000
ParticleTypeInFile               = 1
WriteGhostZones                  = 0
ReadGhostZones                   = 0
OutputParticleTypeGrouping       = 0
MoveParticlesBetweenSiblings     = 1
ParticleSplitterIterations       = 0
ParticleSplitterRandomSeed       = 131180
ParticleSplitterChildrenParticleSeparation     = 1.000000
ResetMagneticField               = 0
ResetMagneticFieldAmplitude      = 0 0 0
MultiRefineRegionMaximumOuterLevel  = -99999
MultiRefineRegionMinimumOuterLevel  = -99999
ParallelRootGridIO              = 0
ParallelParticleIO              = 0
Unigrid                         = 0
UnigridTranspose                = 2
NumberOfRootGridTilesPerDimensionPerProcessor = 1
PartitionNestedGrids            = 0
ExtractFieldsOnly               = 1
CubeDumpEnabled                 = 0
UserDefinedRootGridLayout       = -99999 -99999 -99999
Debug1                          = 0
Debug2                          = 0
MemoryLimit                     = 4000000000
SlopeFlaggingFields = -99999 -99999 -99999 -99999 -99999 -99999 -99999
MinimumSlopeForRefinement = 0.3 0.3 0.3 0.3 0.3 0.3 0.3
SecondDerivativeFlaggingFields = -99999 -99999 -99999 -99999 -99999 -99999 -99999
MinimumSecondDerivativeForRefinement = 0.3 0.3 0.3 0.3 0.3 0.3 0.3
SecondDerivativeEpsilon = 0.01
MinimumOverDensityForRefinement = 1.5 1.5 1.5 1.5 1.5 1.5 1.5
MinimumMassForRefinement = 0.166666667 0.166666667 0.166666667 0.166666667 0.166666667 0.166666667 0.166666667
MinimumMassForRefinementLevelExponent = 0.000000 0.000000 0.000000 0.000000 0.000000 0.000000 0.000000
MinimumShearForRefinement             = 1.000000e+00
OldShearMethod                        = 0
MinimumPressureJumpForRefinement      = 3.300000e-01
MinimumEnergyRatioForRefinement       = 1.000000e-01
ShockwaveRefinementMinMach            = 1.300000
ShockwaveRefinementMinVelocity        = 10000000.000000
ShockwaveRefinementMaxLevel           = 0
ComovingCoordinates                   = 0
StarParticleCreation                  = 0
BigStarFormation                      = 0
BigStarFormationDone                  = 0
BigStarSeparation                     = 0.250000
SimpleQ                               = 1e+50
SimpleRampTime                        = 0.100000
StarFormationOncePerRootGridTimeStep  = 0
StarParticleFeedback                  = 0
StarParticleRadiativeFeedback         = 0
NumberOfParticleAttributes            = 0
SinkMergeDistance                     = 10000000000000000.000000
SinkMergeMass                         = 0.100000
StellarWindFeedback                   = 0
StellarWindTurnOnMass                 = 0.100000
MSStellarWindTurnOnMass                 = 10.000000
StarMakerOverDensityThreshold         = 100
StarMakerUseOverDensityThreshold      = 1
StarMakerMaximumFractionCell          = 0.5
StarMakerSHDensityThreshold           = 7e-26
StarMakerTimeIndependentFormation     = 0
StarMakerMassEfficiency               = 1
StarMakerMinimumMass                  = 1e+09
StarMakerMinimumDynamicalTime         = 1e+06
StarMassEjectionFraction              = 0.25
StarMetalYield                        = 0.02
StarEnergyToThermalFeedback           = 1e-05
StarEnergyToStellarUV                 = 3e-06
StarEnergyToQuasarUV                  = 5e-06
StarFeedbackKineticFraction           = 0
StarMakerExplosionDelayTime           = -1
StarFeedbackDistRadius                = 0
StarFeedbackDistCellStep              = 0
StarMakerUseJeansMass                 = 1
StarMakerTypeIaSNe                    = 0
StarMakerTypeIISNeMetalField          = 0
StarMakerPlanetaryNebulae             = 0
MultiMetals                           = 0

IsotropicConduction                   = 0
AnisotropicConduction                 = 0
IsotropicConductionSpitzerFraction    = 0.000000
AnisotropicConductionSpitzerFraction  = 0.000000
ConductionCourantSafetyNumber   = 0.500000
SpeedOfLightTimeStepLimit             = 0
IsothermalSoundSpeed                  = 1
StarClusterUseMetalField              = 0
StarClusterUnresolvedModel            = 0
StarClusterMinDynamicalTime           = 1e+07
StarClusterIonizingLuminosity         = 1e+47
StarClusterHeliumIonization           = 0
StarClusterSNEnergy                   = 6.8e+48
StarClusterSNRadius                   = 10
StarClusterFormEfficiency             = 0.1
StarClusterMinimumMass                = 1000
StarClusterCombineRadius              = 10
StarClusterRegionLeftEdge             = 0.000000 0.000000 0.000000
StarClusterRegionRightEdge            = 1.000000 1.000000 1.000000
PopIIIStarMass                        = 100
PopIIIInitialMassFunction             = 0
PopIIIInitialMassFunctionSeed         = -99999
PopIIIInitialMassFunctionCalls        = 0
PopIIIMassRange                       = 1.000000 300.000000
PopIIIInitialMassFunctionSlope        = -1.300000
PopIIIHeliumIonization                = 0
PopIIIBlackHoles                      = 0
PopIIIBHLuminosityEfficiency          = 0.100000
PopIIIOverDensityThreshold            = 1e+06
PopIIIH2CriticalFraction              = 0.0005
PopIIIMetalCriticalFraction           = 0.0001
PopIIISupernovaExplosions             = 1
PopIIISupernovaRadius                 = 1
PopIIISupernovaUseColour              = 0
PopIIISupernovaMustRefine             = 0
PopIIISupernovaMustRefineResolution   = 32
PopIIIColorDensityThreshold           = 1e+06
PopIIIColorMass                       = 1e+06
PopIIIUseHypernova                    = 1
PopIIIOutputOnFeedback                = 0

MBHAccretion                          = 0
MBHAccretionRadius                    = 50
MBHAccretingMassRatio                 = 1
MBHAccretionFixedTemperature          = 300000
MBHAccretionFixedRate                 = 0.001
MBHTurnOffStarFormation               = 0
MBHCombineRadius                      = 50
MBHMinDynamicalTime                   = 1e+07
MBHMinimumMass                        = 1000

MBHFeedback                           = 0
MBHFeedbackRadiativeEfficiency        = 0.1
MBHFeedbackEnergyCoupling             = 0.05
MBHFeedbackMassEjectionFraction       = 0.1
MBHFeedbackMetalYield                 = 0.02
MBHFeedbackThermalRadius              = 50
MBHFeedbackJetsThresholdMass          = 10

MBHParticleIO                         = 0
MBHParticleIOFilename               = mbh_particle_io.dat
MBHInsertLocationFilename           = mbh_insert_location.in

ClusterSMBHFeedback           = 0
ClusterSMBHJetMdot            = 3.000000
ClusterSMBHJetVelocity        = 10000.000000
ClusterSMBHJetRadius          = 6.000000
ClusterSMBHJetLaunchOffset    = 10.000000
ClusterSMBHStartTime          = 1.000000
ClusterSMBHTramp              = 0.100000
ClusterSMBHJetOpenAngleRadius = 0.000000
ClusterSMBHFastJetRadius      = 0.100000
ClusterSMBHFastJetVelocity    = 10000.000000
ClusterSMBHJetEdot            = 1.000000
ClusterSMBHKineticFraction    = 1.000000
ClusterSMBHJetAngleTheta      = 0.000000
ClusterSMBHJetAnglePhi        = 0.000000
ClusterSMBHJetPrecessionPeriod= 0.000000
ClusterSMBHCalculateGasMass   = 1
ClusterSMBHFeedbackSwitch     = 0
ClusterSMBHEnoughColdGas      = 10000000.000000
ClusterSMBHAccretionTime      = 5.000000
ClusterSMBHJetDim             = 2
ClusterSMBHAccretionEpsilon   = 0.001000
ClusterSMBHDiskRadius         = 0.500000
ClusterSMBHBCG                = 1.000000
ClusterSMBHMass               = 0.000000
EllipticalGalaxyRe            = 0.000000
OldStarFeedbackAlpha          = 0.000000
SNIaFeedbackEnergy            = 1.000000
StellarWindSpeed              = 0.000000
StellarWindDensity              = 1.000000
StellarWindRadius              = 0.010000
StellarWindTemperature         = 100.000000
StellarWindCenterPosition   = 0.5 0.5 
H2StarMakerEfficiency              = 0.01
H2StarMakerNumberDensityThreshold  = 0
H2StarMakerMinimumMass             = 0
H2StarMakerMinimumH2FractionForStarFormation = 1e-05
H2StarMakerStochastic              = 1
H2StarMakerUseSobolevColumn        = 0
H2StarMakerSigmaOverR              = 0.0333333
H2StarMakerAssumeColdWarmPressureBalance = 0
H2StarMakerH2DissociationFlux_MW   = 1
H2StarMakerH2FloorInColdGas        = 0

H2StarMakerColdGasTemperature      = 10000

UseHydro                   = 0
Theta_Limiter              = 1.500000
RiemannSolver              = 5
RiemannSolverFallback      = 1
ConservativeReconstruction = 0
PositiveReconstruction     = 0
ReconstructionMethod       = 1
UsePhysicalUnit            = 0
UseFloor                   = 0
UseViscosity               = 0
ViscosityCoefficient       = 0
UseAmbipolarDiffusion      = 0
UseResistivity             = 0
SmallRho                   = 1e-30
SmallP                     = 1e-35
SmallT                     = 1e-10
MaximumAlvenSpeed          = 1e+30
Coordinate                 = 0
EOSType                    = 0
EOSSoundSpeed              = 26500
EOSCriticalDensity         = 1e-13
EOSGamma                   = 1.667
Mu                         = 0.6
DivBDampingLength          = 1
UseConstantAcceleration    = 0
ConstantAcceleration       = 0 0 0
UseDrivingField            = 0
DrivingEfficiency          = 1.000000
MixSpeciesAndColors     = 1
DivergenceCleaningBoundaryBuffer = 0
UseDivergenceCleaning            = 0
DivergenceCleaningThreshold      = 0.001
PoissonApproximationThreshold    = 0.001
PoissonBoundaryType    = 0
UseGasDrag                       = 0
GasDragCoefficient               = 0.000000
AngularVelocity              = 0.001000
VelocityGradient             = 1.000000
ShearingVelocityDirection    = -1
ShearingBoxProblemType    = 0

LeftFaceBoundaryCondition  = 3 3 
RightFaceBoundaryCondition = 3 3 
MassUnits = 4.9065651820764e+31
DensityUnits    = 1.67e-24
TimeUnits    = 31557000000000
LengthUnits  = 3.0857e+18
dtPhoton                                  = 0
RadiativeTransferLoadBalance              = 0
RadiativeTransferRadiationPressure        = 0
RadiativeTransferRadiationPressureScale   = 0.000000
RadiativeTransferSourceRadius             = 0
RadiativeTransferPropagationSpeedFraction = 0
RadiativeTransferPropagationDistance      = 0
RadiativeTransferCoupledRateSolver        = 0
RadiativeTransferOpticallyThinH2          = 0
RadiativeTransferOpticallyThinH2CharLength = 0
RadiativeTransferFLDCallOnLevel           = 0
RadiativeTransferPeriodicBoundary         = 0
RadiativeTransferSplitPhotonRadius        = 0.000000
RadiativeTransferFluxBackgroundLimit      = 0.000000
RadiativeTransferHubbleTimeFraction       = 0.000000
RadiativeTransferRaysPerCell              = 0.000000
RadiativeTransferTimestepVelocityLimit    = 0.000000
RadiativeTransferTimestepVelocityLevel    = 0
RadiativeTransferInitialHEALPixLevel      = 0
RadiativeTransferPhotonEscapeRadius       = 0.000000
RadiativeTransferInterpolateField         = 0
RadiativeTransferSourceClustering         = 0
RadiativeTransferPhotonMergeRadius        = 0.000000
RadiativeTransferSourceBeamAngle          = 0.000000
RadiativeTransferHIIRestrictedTimestep    = 0
RadiativeTransferAdaptiveTimestep         = 0
RadiativeTransferHydrogenOnly             = 0
RadiativeTransferTraceSpectrum            = 0
RadiativeTransferRayMaximumLength         = 0.000000
RadiativeTransferH2ShieldType             = 0
RadiativeTransferUseH2Shielding           = 0
RadiativeTransferH2IIDiss                 = 0
RadiativeTransferTraceSpectrumTable       = (null)

MHDCTSlopeLimiter          = 1
MHDCTDualEnergyMethod          = 2
MHDCTPowellSource          = 0
WriteBoundary          = 0
CT_AthenaDissipation          =0.1
MHD_WriteElectric             =1
tiny_pressure                 =1e-20
MHD_CT_Method                 =2
NumberOfGhostZones           =3
IsothermalSoundSpeed          =1
MHD_ProjectB                  =0
MHD_ProjectE                  =1
EquationOfState               =0
CorrectParentBoundaryFlux          = 0
UseSupernovaSeedFieldSourceTerms = 0
SupernovaSeedFieldRadius = 0
SupernovaSeedFieldEnergy = 0
SupernovaSeedFieldDuration = 0
CurrentTimeIdentifier = 1529424508
MetaDataSimulationUUID          = 4bb07b50-648c-4767-a9b2-4c8fe7d8125a
MetaDataDatasetUUID             = 63d58d93-3d33-4d8f-814a-4e35762e0e28
VersionNumber              = 2.500000

